module gitlab.oit.duke.edu/devil-ops/go-proget

go 1.19

require (
	github.com/rs/zerolog v1.28.0
	github.com/stretchr/testify v1.8.0
	moul.io/http2curl v1.0.0
)

require (
	github.com/davecgh/go-spew v1.1.1 // indirect
	github.com/mattn/go-colorable v0.1.12 // indirect
	github.com/mattn/go-isatty v0.0.14 // indirect
	github.com/pmezard/go-difflib v1.0.0 // indirect
	github.com/smartystreets/goconvey v1.7.2 // indirect
	golang.org/x/sys v0.0.0-20210927094055-39ccf1dd6fa6 // indirect
	gopkg.in/yaml.v3 v3.0.1 // indirect
)
